info face="Liberation Sans" size=32 bold=0 italic=0 charset="" unicode=1 stretchH=100 smooth=1 aa=1 padding=0,0,0,0 spacing=1,1 outline=0
common lineHeight=32 base=26 scaleW=512 scaleH=512 pages=1 packed=0 alphaChnl=1 redChnl=0 greenChnl=0 blueChnl=0
page id=0 file="rutu_0.png"
chars count=638
char id=32   x=42    y=30    width=3     height=1     xoffset=-1    yoffset=31    xadvance=8     page=0  chnl=15
char id=33   x=504   y=381   width=4     height=20    xoffset=2     yoffset=6     xadvance=9     page=0  chnl=15
char id=34   x=119   y=479   width=10    height=6     xoffset=0     yoffset=6     xadvance=10    page=0  chnl=15
char id=35   x=199   y=342   width=18    height=20    xoffset=-1    yoffset=6     xadvance=16    page=0  chnl=15
char id=36   x=332   y=161   width=16    height=24    xoffset=0     yoffset=4     xadvance=16    page=0  chnl=15
char id=37   x=296   y=277   width=26    height=20    xoffset=0     yoffset=6     xadvance=26    page=0  chnl=15
char id=38   x=20    y=346   width=19    height=20    xoffset=0     yoffset=6     xadvance=19    page=0  chnl=15
char id=39   x=138   y=478   width=4     height=6     xoffset=1     yoffset=6     xadvance=6     page=0  chnl=15
char id=40   x=329   y=0     width=9     height=27    xoffset=1     yoffset=5     xadvance=10    page=0  chnl=15
char id=41   x=339   y=0     width=9     height=27    xoffset=0     yoffset=5     xadvance=10    page=0  chnl=15
char id=42   x=459   y=454   width=11    height=10    xoffset=0     yoffset=6     xadvance=11    page=0  chnl=15
char id=43   x=190   y=461   width=15    height=14    xoffset=1     yoffset=9     xadvance=17    page=0  chnl=15
char id=44   x=104   y=480   width=4     height=7     xoffset=2     yoffset=23    xadvance=8     page=0  chnl=15
char id=45   x=311   y=470   width=8     height=2     xoffset=1     yoffset=17    xadvance=10    page=0  chnl=15
char id=46   x=248   y=471   width=4     height=3     xoffset=2     yoffset=23    xadvance=8     page=0  chnl=15
char id=47   x=397   y=255   width=10    height=21    xoffset=-1    yoffset=5     xadvance=8     page=0  chnl=15
char id=48   x=437   y=361   width=16    height=20    xoffset=0     yoffset=6     xadvance=16    page=0  chnl=15
char id=49   x=339   y=382   width=14    height=20    xoffset=1     yoffset=6     xadvance=16    page=0  chnl=15
char id=50   x=309   y=382   width=14    height=20    xoffset=1     yoffset=6     xadvance=16    page=0  chnl=15
char id=51   x=294   y=383   width=14    height=20    xoffset=1     yoffset=6     xadvance=16    page=0  chnl=15
char id=52   x=369   y=361   width=16    height=20    xoffset=0     yoffset=6     xadvance=16    page=0  chnl=15
char id=53   x=68    y=388   width=16    height=20    xoffset=0     yoffset=6     xadvance=16    page=0  chnl=15
char id=54   x=444   y=382   width=14    height=20    xoffset=1     yoffset=6     xadvance=16    page=0  chnl=15
char id=55   x=399   y=382   width=14    height=20    xoffset=1     yoffset=6     xadvance=16    page=0  chnl=15
char id=56   x=324   y=382   width=14    height=20    xoffset=1     yoffset=6     xadvance=16    page=0  chnl=15
char id=57   x=489   y=381   width=14    height=20    xoffset=1     yoffset=6     xadvance=16    page=0  chnl=15
char id=58   x=104   y=463   width=4     height=16    xoffset=2     yoffset=10    xadvance=8     page=0  chnl=15
char id=59   x=505   y=359   width=4     height=20    xoffset=2     yoffset=10    xadvance=8     page=0  chnl=15
char id=60   x=114   y=463   width=15    height=15    xoffset=1     yoffset=9     xadvance=17    page=0  chnl=15
char id=61   x=471   y=454   width=15    height=9     xoffset=1     yoffset=12    xadvance=17    page=0  chnl=15
char id=62   x=146   y=462   width=15    height=15    xoffset=1     yoffset=9     xadvance=17    page=0  chnl=15
char id=63   x=301   y=361   width=16    height=20    xoffset=0     yoffset=6     xadvance=16    page=0  chnl=15
char id=64   x=249   y=109   width=25    height=25    xoffset=2     yoffset=5     xadvance=29    page=0  chnl=15
char id=65   x=471   y=296   width=21    height=20    xoffset=-1    yoffset=6     xadvance=19    page=0  chnl=15
char id=66   x=216   y=363   width=16    height=20    xoffset=2     yoffset=6     xadvance=19    page=0  chnl=15
char id=67   x=100   y=346   width=19    height=20    xoffset=1     yoffset=6     xadvance=21    page=0  chnl=15
char id=68   x=493   y=294   width=18    height=20    xoffset=2     yoffset=6     xadvance=21    page=0  chnl=15
char id=69   x=407   y=340   width=17    height=20    xoffset=2     yoffset=6     xadvance=19    page=0  chnl=15
char id=70   x=119   y=388   width=16    height=20    xoffset=2     yoffset=6     xadvance=18    page=0  chnl=15
char id=71   x=427   y=298   width=21    height=20    xoffset=1     yoffset=6     xadvance=23    page=0  chnl=15
char id=72   x=425   y=340   width=17    height=20    xoffset=2     yoffset=6     xadvance=21    page=0  chnl=15
char id=73   x=503   y=251   width=4     height=20    xoffset=2     yoffset=6     xadvance=7     page=0  chnl=15
char id=74   x=279   y=384   width=14    height=20    xoffset=0     yoffset=6     xadvance=15    page=0  chnl=15
char id=75   x=443   y=340   width=17    height=20    xoffset=2     yoffset=6     xadvance=19    page=0  chnl=15
char id=76   x=414   y=382   width=14    height=20    xoffset=2     yoffset=6     xadvance=16    page=0  chnl=15
char id=77   x=388   y=319   width=20    height=20    xoffset=2     yoffset=6     xadvance=23    page=0  chnl=15
char id=78   x=461   y=339   width=17    height=20    xoffset=2     yoffset=6     xadvance=21    page=0  chnl=15
char id=79   x=383   y=298   width=21    height=20    xoffset=1     yoffset=6     xadvance=23    page=0  chnl=15
char id=80   x=17    y=388   width=16    height=20    xoffset=2     yoffset=6     xadvance=19    page=0  chnl=15
char id=81   x=363   y=109   width=21    height=25    xoffset=1     yoffset=6     xadvance=23    page=0  chnl=15
char id=82   x=275   y=341   width=18    height=20    xoffset=2     yoffset=6     xadvance=21    page=0  chnl=15
char id=83   x=479   y=339   width=17    height=20    xoffset=1     yoffset=6     xadvance=19    page=0  chnl=15
char id=84   x=160   y=345   width=19    height=20    xoffset=0     yoffset=6     xadvance=19    page=0  chnl=15
char id=85   x=80    y=346   width=19    height=20    xoffset=1     yoffset=6     xadvance=21    page=0  chnl=15
char id=86   x=304   y=319   width=20    height=20    xoffset=0     yoffset=6     xadvance=19    page=0  chnl=15
char id=87   x=32    y=283   width=30    height=20    xoffset=0     yoffset=6     xadvance=30    page=0  chnl=15
char id=88   x=450   y=318   width=19    height=20    xoffset=0     yoffset=6     xadvance=19    page=0  chnl=15
char id=89   x=470   y=318   width=19    height=20    xoffset=0     yoffset=6     xadvance=19    page=0  chnl=15
char id=90   x=180   y=343   width=18    height=20    xoffset=0     yoffset=6     xadvance=18    page=0  chnl=15
char id=91   x=358   y=0     width=8     height=27    xoffset=1     yoffset=5     xadvance=8     page=0  chnl=15
char id=92   x=386   y=255   width=10    height=21    xoffset=-1    yoffset=5     xadvance=8     page=0  chnl=15
char id=93   x=349   y=0     width=8     height=27    xoffset=-1    yoffset=5     xadvance=8     page=0  chnl=15
char id=94   x=444   y=454   width=14    height=10    xoffset=0     yoffset=6     xadvance=14    page=0  chnl=15
char id=95   x=272   y=470   width=18    height=2     xoffset=-1    yoffset=30    xadvance=16    page=0  chnl=15
char id=96   x=200   y=476   width=7     height=4     xoffset=1     yoffset=5     xadvance=10    page=0  chnl=15
char id=97   x=18    y=447   width=17    height=16    xoffset=0     yoffset=10    xadvance=16    page=0  chnl=15
char id=98   x=224   y=256   width=15    height=21    xoffset=1     yoffset=5     xadvance=16    page=0  chnl=15
char id=99   x=400   y=437   width=14    height=16    xoffset=1     yoffset=10    xadvance=15    page=0  chnl=15
char id=100  x=192   y=257   width=15    height=21    xoffset=0     yoffset=5     xadvance=16    page=0  chnl=15
char id=101  x=104   y=446   width=15    height=16    xoffset=0     yoffset=10    xadvance=16    page=0  chnl=15
char id=102  x=408   y=255   width=9     height=21    xoffset=0     yoffset=5     xadvance=8     page=0  chnl=15
char id=103  x=256   y=209   width=15    height=22    xoffset=0     yoffset=10    xadvance=16    page=0  chnl=15
char id=104  x=272   y=255   width=14    height=21    xoffset=1     yoffset=5     xadvance=16    page=0  chnl=15
char id=105  x=507   y=227   width=4     height=21    xoffset=1     yoffset=5     xadvance=7     page=0  chnl=15
char id=106  x=382   y=0     width=6     height=27    xoffset=-1    yoffset=5     xadvance=7     page=0  chnl=15
char id=107  x=332   y=255   width=14    height=21    xoffset=1     yoffset=5     xadvance=14    page=0  chnl=15
char id=108  x=507   y=159   width=4     height=21    xoffset=1     yoffset=5     xadvance=7     page=0  chnl=15
char id=109  x=0     y=430   width=23    height=16    xoffset=1     yoffset=10    xadvance=25    page=0  chnl=15
char id=110  x=370   y=437   width=14    height=16    xoffset=1     yoffset=10    xadvance=16    page=0  chnl=15
char id=111  x=70    y=447   width=16    height=16    xoffset=0     yoffset=10    xadvance=16    page=0  chnl=15
char id=112  x=304   y=209   width=15    height=22    xoffset=1     yoffset=10    xadvance=16    page=0  chnl=15
char id=113  x=368   y=209   width=15    height=22    xoffset=0     yoffset=10    xadvance=16    page=0  chnl=15
char id=114  x=94    y=464   width=9     height=16    xoffset=1     yoffset=10    xadvance=10    page=0  chnl=15
char id=115  x=248   y=440   width=15    height=16    xoffset=0     yoffset=10    xadvance=15    page=0  chnl=15
char id=116  x=99    y=409   width=9     height=19    xoffset=0     yoffset=7     xadvance=8     page=0  chnl=15
char id=117  x=325   y=438   width=14    height=16    xoffset=1     yoffset=10    xadvance=16    page=0  chnl=15
char id=118  x=200   y=443   width=15    height=16    xoffset=-1    yoffset=10    xadvance=13    page=0  chnl=15
char id=119  x=48    y=430   width=23    height=16    xoffset=-1    yoffset=10    xadvance=21    page=0  chnl=15
char id=120  x=445   y=437   width=13    height=16    xoffset=0     yoffset=10    xadvance=13    page=0  chnl=15
char id=121  x=192   y=211   width=15    height=22    xoffset=-1    yoffset=10    xadvance=13    page=0  chnl=15
char id=122  x=498   y=419   width=13    height=16    xoffset=0     yoffset=10    xadvance=14    page=0  chnl=15
char id=123  x=318   y=0     width=10    height=27    xoffset=0     yoffset=5     xadvance=10    page=0  chnl=15
char id=124  x=400   y=0     width=4     height=27    xoffset=2     yoffset=5     xadvance=8     page=0  chnl=15
char id=125  x=307   y=0     width=10    height=27    xoffset=0     yoffset=5     xadvance=10    page=0  chnl=15
char id=126  x=175   y=476   width=15    height=4     xoffset=1     yoffset=14    xadvance=17    page=0  chnl=15
char id=160  x=38    y=30    width=3     height=1     xoffset=-1    yoffset=31    xadvance=8     page=0  chnl=15
char id=161  x=506   y=205   width=5     height=21    xoffset=2     yoffset=10    xadvance=9     page=0  chnl=15
char id=162  x=0     y=409   width=14    height=20    xoffset=1     yoffset=6     xadvance=16    page=0  chnl=15
char id=163  x=233   y=363   width=16    height=20    xoffset=0     yoffset=6     xadvance=16    page=0  chnl=15
char id=164  x=285   y=457   width=14    height=12    xoffset=1     yoffset=10    xadvance=16    page=0  chnl=15
char id=165  x=313   y=340   width=18    height=20    xoffset=-1    yoffset=6     xadvance=16    page=0  chnl=15
char id=166  x=395   y=0     width=4     height=27    xoffset=2     yoffset=5     xadvance=8     page=0  chnl=15
char id=167  x=425   y=161   width=14    height=23    xoffset=1     yoffset=5     xadvance=16    page=0  chnl=15
char id=168  x=291   y=470   width=10    height=2     xoffset=0     yoffset=7     xadvance=10    page=0  chnl=15
char id=169  x=88    y=325   width=21    height=20    xoffset=0     yoffset=6     xadvance=21    page=0  chnl=15
char id=170  x=401   y=454   width=12    height=11    xoffset=0     yoffset=6     xadvance=11    page=0  chnl=15
char id=171  x=368   y=454   width=16    height=11    xoffset=0     yoffset=13    xadvance=16    page=0  chnl=15
char id=172  x=487   y=454   width=15    height=8     xoffset=1     yoffset=15    xadvance=17    page=0  chnl=15
char id=173  x=302   y=470   width=8     height=2     xoffset=1     yoffset=17    xadvance=10    page=0  chnl=15
char id=174  x=132   y=324   width=21    height=20    xoffset=0     yoffset=6     xadvance=21    page=0  chnl=15
char id=175  x=253   y=470   width=18    height=2     xoffset=-1    yoffset=3     xadvance=16    page=0  chnl=15
char id=176  x=0     y=481   width=10    height=8     xoffset=1     yoffset=6     xadvance=12    page=0  chnl=15
char id=177  x=128   y=409   width=16    height=18    xoffset=0     yoffset=8     xadvance=16    page=0  chnl=15
char id=178  x=326   y=455   width=10    height=12    xoffset=0     yoffset=6     xadvance=10    page=0  chnl=15
char id=179  x=315   y=457   width=10    height=12    xoffset=0     yoffset=6     xadvance=10    page=0  chnl=15
char id=180  x=191   y=476   width=8     height=4     xoffset=0     yoffset=5     xadvance=10    page=0  chnl=15
char id=181  x=486   y=182   width=16    height=22    xoffset=1     yoffset=10    xadvance=17    page=0  chnl=15
char id=182  x=349   y=161   width=15    height=24    xoffset=0     yoffset=6     xadvance=16    page=0  chnl=15
char id=183  x=243   y=471   width=4     height=3     xoffset=3     yoffset=16    xadvance=10    page=0  chnl=15
char id=184  x=130   y=478   width=7     height=6     xoffset=1     yoffset=26    xadvance=10    page=0  chnl=15
char id=185  x=337   y=455   width=9     height=12    xoffset=1     yoffset=6     xadvance=10    page=0  chnl=15
char id=186  x=414   y=454   width=11    height=11    xoffset=0     yoffset=6     xadvance=11    page=0  chnl=15
char id=187  x=385   y=454   width=15    height=11    xoffset=1     yoffset=13    xadvance=16    page=0  chnl=15
char id=188  x=50    y=304   width=24    height=20    xoffset=0     yoffset=6     xadvance=24    page=0  chnl=15
char id=189  x=25    y=304   width=24    height=20    xoffset=0     yoffset=6     xadvance=24    page=0  chnl=15
char id=190  x=0     y=304   width=24    height=20    xoffset=0     yoffset=6     xadvance=24    page=0  chnl=15
char id=191  x=74    y=261   width=16    height=21    xoffset=1     yoffset=10    xadvance=18    page=0  chnl=15
char id=192  x=319   y=109   width=21    height=25    xoffset=-1    yoffset=1     xadvance=19    page=0  chnl=15
char id=193  x=341   y=109   width=21    height=25    xoffset=-1    yoffset=1     xadvance=19    page=0  chnl=15
char id=194  x=0     y=60    width=21    height=26    xoffset=-1    yoffset=0     xadvance=19    page=0  chnl=15
char id=195  x=403   y=28    width=21    height=26    xoffset=-1    yoffset=0     xadvance=19    page=0  chnl=15
char id=196  x=48    y=167   width=21    height=24    xoffset=-1    yoffset=2     xadvance=19    page=0  chnl=15
char id=197  x=275   y=109   width=21    height=25    xoffset=-1    yoffset=1     xadvance=19    page=0  chnl=15
char id=198  x=94    y=283   width=29    height=20    xoffset=0     yoffset=6     xadvance=29    page=0  chnl=15
char id=199  x=428   y=54    width=19    height=26    xoffset=1     yoffset=6     xadvance=21    page=0  chnl=15
char id=200  x=269   y=135   width=17    height=25    xoffset=2     yoffset=1     xadvance=19    page=0  chnl=15
char id=201  x=233   y=135   width=17    height=25    xoffset=2     yoffset=1     xadvance=19    page=0  chnl=15
char id=202  x=404   y=82    width=17    height=26    xoffset=2     yoffset=0     xadvance=19    page=0  chnl=15
char id=203  x=260   y=161   width=17    height=24    xoffset=2     yoffset=2     xadvance=19    page=0  chnl=15
char id=204  x=424   y=135   width=7     height=25    xoffset=-1    yoffset=1     xadvance=7     page=0  chnl=15
char id=205  x=432   y=135   width=7     height=25    xoffset=1     yoffset=1     xadvance=7     page=0  chnl=15
char id=206  x=185   y=110   width=9     height=26    xoffset=-1    yoffset=0     xadvance=7     page=0  chnl=15
char id=207  x=365   y=161   width=9     height=24    xoffset=-1    yoffset=2     xadvance=7     page=0  chnl=15
char id=208  x=22    y=325   width=21    height=20    xoffset=-1    yoffset=6     xadvance=21    page=0  chnl=15
char id=209  x=422   y=82    width=17    height=26    xoffset=2     yoffset=0     xadvance=21    page=0  chnl=15
char id=210  x=451   y=108   width=21    height=25    xoffset=1     yoffset=1     xadvance=23    page=0  chnl=15
char id=211  x=473   y=108   width=21    height=25    xoffset=1     yoffset=1     xadvance=23    page=0  chnl=15
char id=212  x=337   y=28    width=21    height=26    xoffset=1     yoffset=0     xadvance=23    page=0  chnl=15
char id=213  x=249   y=28    width=21    height=26    xoffset=1     yoffset=0     xadvance=23    page=0  chnl=15
char id=214  x=136   y=163   width=21    height=24    xoffset=1     yoffset=2     xadvance=23    page=0  chnl=15
char id=215  x=206   y=460   width=15    height=13    xoffset=1     yoffset=10    xadvance=17    page=0  chnl=15
char id=216  x=463   y=230   width=23    height=21    xoffset=0     yoffset=5     xadvance=23    page=0  chnl=15
char id=217  x=100   y=138   width=19    height=25    xoffset=1     yoffset=1     xadvance=21    page=0  chnl=15
char id=218  x=80    y=140   width=19    height=25    xoffset=1     yoffset=1     xadvance=21    page=0  chnl=15
char id=219  x=308   y=55    width=19    height=26    xoffset=1     yoffset=0     xadvance=21    page=0  chnl=15
char id=220  x=200   y=162   width=19    height=24    xoffset=1     yoffset=2     xadvance=21    page=0  chnl=15
char id=221  x=60    y=141   width=19    height=25    xoffset=0     yoffset=1     xadvance=19    page=0  chnl=15
char id=222  x=352   y=361   width=16    height=20    xoffset=2     yoffset=6     xadvance=19    page=0  chnl=15
char id=223  x=38    y=261   width=17    height=21    xoffset=1     yoffset=5     xadvance=18    page=0  chnl=15
char id=224  x=280   y=186   width=17    height=22    xoffset=0     yoffset=4     xadvance=16    page=0  chnl=15
char id=225  x=298   y=186   width=17    height=22    xoffset=0     yoffset=4     xadvance=16    page=0  chnl=15
char id=226  x=154   y=188   width=17    height=22    xoffset=0     yoffset=4     xadvance=16    page=0  chnl=15
char id=227  x=172   y=188   width=17    height=22    xoffset=0     yoffset=4     xadvance=16    page=0  chnl=15
char id=228  x=144   y=366   width=17    height=20    xoffset=0     yoffset=6     xadvance=16    page=0  chnl=15
char id=229  x=251   y=135   width=17    height=25    xoffset=0     yoffset=1     xadvance=16    page=0  chnl=15
char id=230  x=421   y=403   width=25    height=16    xoffset=0     yoffset=10    xadvance=26    page=0  chnl=15
char id=231  x=45    y=238   width=14    height=22    xoffset=1     yoffset=10    xadvance=15    page=0  chnl=15
char id=232  x=288   y=209   width=15    height=22    xoffset=0     yoffset=4     xadvance=16    page=0  chnl=15
char id=233  x=272   y=209   width=15    height=22    xoffset=0     yoffset=4     xadvance=16    page=0  chnl=15
char id=234  x=240   y=209   width=15    height=22    xoffset=0     yoffset=4     xadvance=16    page=0  chnl=15
char id=235  x=185   y=385   width=15    height=20    xoffset=0     yoffset=6     xadvance=16    page=0  chnl=15
char id=236  x=503   y=182   width=8     height=22    xoffset=0     yoffset=4     xadvance=9     page=0  chnl=15
char id=237  x=429   y=231   width=8     height=22    xoffset=1     yoffset=4     xadvance=9     page=0  chnl=15
char id=238  x=375   y=232   width=11    height=22    xoffset=-1    yoffset=4     xadvance=9     page=0  chnl=15
char id=239  x=55    y=409   width=11    height=20    xoffset=-1    yoffset=6     xadvance=9     page=0  chnl=15
char id=240  x=159   y=258   width=16    height=21    xoffset=0     yoffset=5     xadvance=16    page=0  chnl=15
char id=241  x=15    y=238   width=14    height=22    xoffset=1     yoffset=4     xadvance=16    page=0  chnl=15
char id=242  x=401   y=185   width=16    height=22    xoffset=0     yoffset=4     xadvance=16    page=0  chnl=15
char id=243  x=384   y=186   width=16    height=22    xoffset=0     yoffset=4     xadvance=16    page=0  chnl=15
char id=244  x=367   y=186   width=16    height=22    xoffset=0     yoffset=4     xadvance=16    page=0  chnl=15
char id=245  x=350   y=186   width=16    height=22    xoffset=0     yoffset=4     xadvance=16    page=0  chnl=15
char id=246  x=471   y=360   width=16    height=20    xoffset=0     yoffset=6     xadvance=16    page=0  chnl=15
char id=247  x=253   y=457   width=16    height=12    xoffset=0     yoffset=10    xadvance=16    page=0  chnl=15
char id=248  x=406   y=420   width=18    height=16    xoffset=0     yoffset=10    xadvance=18    page=0  chnl=15
char id=249  x=476   y=206   width=14    height=22    xoffset=1     yoffset=4     xadvance=16    page=0  chnl=15
char id=250  x=461   y=207   width=14    height=22    xoffset=1     yoffset=4     xadvance=16    page=0  chnl=15
char id=251  x=431   y=208   width=14    height=22    xoffset=1     yoffset=4     xadvance=16    page=0  chnl=15
char id=252  x=249   y=384   width=14    height=20    xoffset=1     yoffset=6     xadvance=16    page=0  chnl=15
char id=253  x=134   y=0     width=15    height=28    xoffset=-1    yoffset=4     xadvance=13    page=0  chnl=15
char id=254  x=225   y=0     width=15    height=27    xoffset=1     yoffset=5     xadvance=16    page=0  chnl=15
char id=255  x=99    y=111   width=15    height=26    xoffset=-1    yoffset=6     xadvance=13    page=0  chnl=15
char id=256  x=407   y=109   width=21    height=25    xoffset=-1    yoffset=1     xadvance=19    page=0  chnl=15
char id=257  x=162   y=366   width=17    height=20    xoffset=0     yoffset=6     xadvance=16    page=0  chnl=15
char id=258  x=271   y=28    width=21    height=26    xoffset=-1    yoffset=0     xadvance=19    page=0  chnl=15
char id=259  x=190   y=188   width=17    height=22    xoffset=0     yoffset=4     xadvance=16    page=0  chnl=15
char id=260  x=44    y=59    width=21    height=26    xoffset=-1    yoffset=6     xadvance=19    page=0  chnl=15
char id=261  x=208   y=187   width=17    height=22    xoffset=0     yoffset=10    xadvance=16    page=0  chnl=15
char id=262  x=20    y=141   width=19    height=25    xoffset=1     yoffset=1     xadvance=21    page=0  chnl=15
char id=263  x=416   y=208   width=14    height=22    xoffset=1     yoffset=4     xadvance=15    page=0  chnl=15
char id=264  x=168   y=56    width=19    height=26    xoffset=1     yoffset=0     xadvance=21    page=0  chnl=15
char id=265  x=105   y=237   width=14    height=22    xoffset=1     yoffset=4     xadvance=15    page=0  chnl=15
char id=266  x=0     y=141   width=19    height=25    xoffset=1     yoffset=1     xadvance=21    page=0  chnl=15
char id=267  x=287   y=255   width=14    height=21    xoffset=1     yoffset=5     xadvance=15    page=0  chnl=15
char id=268  x=368   y=55    width=19    height=26    xoffset=1     yoffset=0     xadvance=21    page=0  chnl=15
char id=269  x=150   y=235   width=14    height=22    xoffset=1     yoffset=4     xadvance=15    page=0  chnl=15
char id=270  x=114   y=83    width=18    height=26    xoffset=2     yoffset=0     xadvance=21    page=0  chnl=15
char id=271  x=487   y=229   width=19    height=21    xoffset=0     yoffset=5     xadvance=18    page=0  chnl=15
char id=272  x=176   y=322   width=21    height=20    xoffset=-1    yoffset=6     xadvance=21    page=0  chnl=15
char id=273  x=56    y=261   width=17    height=21    xoffset=0     yoffset=5     xadvance=16    page=0  chnl=15
char id=274  x=323   y=135   width=17    height=25    xoffset=2     yoffset=1     xadvance=19    page=0  chnl=15
char id=275  x=217   y=384   width=15    height=20    xoffset=0     yoffset=6     xadvance=16    page=0  chnl=15
char id=276  x=188   y=82    width=17    height=26    xoffset=2     yoffset=0     xadvance=19    page=0  chnl=15
char id=277  x=32    y=215   width=15    height=22    xoffset=0     yoffset=4     xadvance=16    page=0  chnl=15
char id=278  x=305   y=135   width=17    height=25    xoffset=2     yoffset=1     xadvance=19    page=0  chnl=15
char id=279  x=176   y=257   width=15    height=21    xoffset=0     yoffset=5     xadvance=16    page=0  chnl=15
char id=280  x=476   y=81    width=17    height=26    xoffset=2     yoffset=6     xadvance=19    page=0  chnl=15
char id=281  x=96    y=214   width=15    height=22    xoffset=0     yoffset=10    xadvance=16    page=0  chnl=15
char id=282  x=458   y=81    width=17    height=26    xoffset=2     yoffset=0     xadvance=19    page=0  chnl=15
char id=283  x=128   y=212   width=15    height=22    xoffset=0     yoffset=4     xadvance=16    page=0  chnl=15
char id=284  x=447   y=27    width=21    height=26    xoffset=1     yoffset=0     xadvance=23    page=0  chnl=15
char id=285  x=118   y=0     width=15    height=28    xoffset=0     yoffset=4     xadvance=16    page=0  chnl=15
char id=286  x=315   y=28    width=21    height=26    xoffset=1     yoffset=0     xadvance=23    page=0  chnl=15
char id=287  x=102   y=0     width=15    height=28    xoffset=0     yoffset=4     xadvance=16    page=0  chnl=15
char id=288  x=297   y=109   width=21    height=25    xoffset=1     yoffset=1     xadvance=23    page=0  chnl=15
char id=289  x=209   y=0     width=15    height=27    xoffset=0     yoffset=5     xadvance=16    page=0  chnl=15
char id=290  x=359   y=28    width=21    height=26    xoffset=1     yoffset=6     xadvance=23    page=0  chnl=15
char id=291  x=38    y=0     width=15    height=29    xoffset=0     yoffset=3     xadvance=16    page=0  chnl=15
char id=292  x=170   y=83    width=17    height=26    xoffset=2     yoffset=0     xadvance=21    page=0  chnl=15
char id=293  x=145   y=110   width=14    height=26    xoffset=1     yoffset=0     xadvance=16    page=0  chnl=15
char id=294  x=125   y=303   width=23    height=20    xoffset=-1    yoffset=6     xadvance=21    page=0  chnl=15
char id=295  x=91    y=261   width=16    height=21    xoffset=-1    yoffset=5     xadvance=16    page=0  chnl=15
char id=296  x=173   y=110   width=11    height=26    xoffset=-2    yoffset=0     xadvance=7     page=0  chnl=15
char id=297  x=281   y=232   width=13    height=22    xoffset=-2    yoffset=4     xadvance=9     page=0  chnl=15
char id=298  x=404   y=135   width=9     height=25    xoffset=-1    yoffset=1     xadvance=7     page=0  chnl=15
char id=299  x=67    y=409   width=11    height=20    xoffset=-1    yoffset=6     xadvance=9     page=0  chnl=15
char id=300  x=501   y=0     width=9     height=26    xoffset=-1    yoffset=0     xadvance=7     page=0  chnl=15
char id=301  x=350   y=232   width=12    height=22    xoffset=-1    yoffset=4     xadvance=9     page=0  chnl=15
char id=302  x=204   y=109   width=6     height=26    xoffset=0     yoffset=6     xadvance=7     page=0  chnl=15
char id=303  x=367   y=0     width=7     height=27    xoffset=0     yoffset=5     xadvance=7     page=0  chnl=15
char id=304  x=507   y=54    width=4     height=25    xoffset=2     yoffset=1     xadvance=7     page=0  chnl=15
char id=305  x=109   y=463   width=4     height=16    xoffset=2     yoffset=10    xadvance=9     page=0  chnl=15
char id=306  x=370   y=340   width=18    height=20    xoffset=2     yoffset=6     xadvance=21    page=0  chnl=15
char id=307  x=283   y=0     width=11    height=27    xoffset=1     yoffset=5     xadvance=13    page=0  chnl=15
char id=308  x=67    y=113   width=15    height=26    xoffset=0     yoffset=0     xadvance=15    page=0  chnl=15
char id=309  x=295   y=0     width=11    height=27    xoffset=-2    yoffset=5     xadvance=7     page=0  chnl=15
char id=310  x=494   y=81    width=17    height=26    xoffset=2     yoffset=6     xadvance=19    page=0  chnl=15
char id=311  x=241   y=0     width=14    height=27    xoffset=1     yoffset=5     xadvance=14    page=0  chnl=15
char id=312  x=264   y=440   width=15    height=16    xoffset=1     yoffset=10    xadvance=15    page=0  chnl=15
char id=313  x=359   y=135   width=14    height=25    xoffset=2     yoffset=1     xadvance=16    page=0  chnl=15
char id=314  x=195   y=109   width=8     height=26    xoffset=1     yoffset=0     xadvance=7     page=0  chnl=15
char id=315  x=130   y=110   width=14    height=26    xoffset=2     yoffset=6     xadvance=16    page=0  chnl=15
char id=316  x=389   y=0     width=5     height=27    xoffset=1     yoffset=5     xadvance=7     page=0  chnl=15
char id=317  x=369   y=382   width=14    height=20    xoffset=2     yoffset=6     xadvance=16    page=0  chnl=15
char id=318  x=418   y=255   width=9     height=21    xoffset=1     yoffset=5     xadvance=9     page=0  chnl=15
char id=319  x=459   y=382   width=14    height=20    xoffset=2     yoffset=6     xadvance=16    page=0  chnl=15
char id=320  x=428   y=254   width=9     height=21    xoffset=1     yoffset=5     xadvance=10    page=0  chnl=15
char id=321  x=386   y=361   width=16    height=20    xoffset=0     yoffset=6     xadvance=16    page=0  chnl=15
char id=322  x=438   y=253   width=8     height=21    xoffset=-1    yoffset=5     xadvance=6     page=0  chnl=15
char id=323  x=341   y=135   width=17    height=25    xoffset=2     yoffset=1     xadvance=21    page=0  chnl=15
char id=324  x=446   y=208   width=14    height=22    xoffset=1     yoffset=4     xadvance=16    page=0  chnl=15
char id=325  x=278   y=82    width=17    height=26    xoffset=2     yoffset=6     xadvance=21    page=0  chnl=15
char id=326  x=0     y=238   width=14    height=22    xoffset=1     yoffset=10    xadvance=16    page=0  chnl=15
char id=327  x=242   y=82    width=17    height=26    xoffset=2     yoffset=0     xadvance=21    page=0  chnl=15
char id=328  x=491   y=205   width=14    height=22    xoffset=1     yoffset=4     xadvance=16    page=0  chnl=15
char id=329  x=237   y=342   width=18    height=20    xoffset=-1    yoffset=6     xadvance=18    page=0  chnl=15
char id=330  x=332   y=340   width=18    height=20    xoffset=2     yoffset=6     xadvance=21    page=0  chnl=15
char id=331  x=60    y=238   width=14    height=22    xoffset=1     yoffset=10    xadvance=16    page=0  chnl=15
char id=332  x=385   y=109   width=21    height=25    xoffset=1     yoffset=1     xadvance=23    page=0  chnl=15
char id=333  x=403   y=361   width=16    height=20    xoffset=0     yoffset=6     xadvance=16    page=0  chnl=15
char id=334  x=381   y=28    width=21    height=26    xoffset=1     yoffset=0     xadvance=23    page=0  chnl=15
char id=335  x=469   y=183   width=16    height=22    xoffset=0     yoffset=4     xadvance=16    page=0  chnl=15
char id=336  x=293   y=28    width=21    height=26    xoffset=1     yoffset=0     xadvance=23    page=0  chnl=15
char id=337  x=316   y=186   width=16    height=22    xoffset=0     yoffset=4     xadvance=16    page=0  chnl=15
char id=338  x=268   y=277   width=27    height=20    xoffset=1     yoffset=6     xadvance=29    page=0  chnl=15
char id=339  x=367   y=403   width=26    height=16    xoffset=0     yoffset=10    xadvance=27    page=0  chnl=15
char id=340  x=159   y=137   width=18    height=25    xoffset=2     yoffset=1     xadvance=21    page=0  chnl=15
char id=341  x=409   y=232   width=9     height=22    xoffset=1     yoffset=4     xadvance=10    page=0  chnl=15
char id=342  x=95    y=84    width=18    height=26    xoffset=2     yoffset=6     xadvance=21    page=0  chnl=15
char id=343  x=419   y=231   width=9     height=22    xoffset=1     yoffset=10    xadvance=10    page=0  chnl=15
char id=344  x=19    y=87    width=18    height=26    xoffset=2     yoffset=0     xadvance=21    page=0  chnl=15
char id=345  x=363   y=232   width=11    height=22    xoffset=0     yoffset=4     xadvance=10    page=0  chnl=15
char id=346  x=206   y=82    width=17    height=26    xoffset=1     yoffset=0     xadvance=19    page=0  chnl=15
char id=347  x=224   y=210   width=15    height=22    xoffset=0     yoffset=4     xadvance=15    page=0  chnl=15
char id=348  x=260   y=82    width=17    height=26    xoffset=1     yoffset=0     xadvance=19    page=0  chnl=15
char id=349  x=80    y=215   width=15    height=22    xoffset=0     yoffset=4     xadvance=15    page=0  chnl=15
char id=350  x=224   y=82    width=17    height=26    xoffset=1     yoffset=6     xadvance=19    page=0  chnl=15
char id=351  x=336   y=209   width=15    height=22    xoffset=0     yoffset=10    xadvance=15    page=0  chnl=15
char id=352  x=296   y=82    width=17    height=26    xoffset=1     yoffset=0     xadvance=19    page=0  chnl=15
char id=353  x=208   y=210   width=15    height=22    xoffset=0     yoffset=4     xadvance=15    page=0  chnl=15
char id=354  x=288   y=55    width=19    height=26    xoffset=0     yoffset=6     xadvance=19    page=0  chnl=15
char id=355  x=414   y=135   width=9     height=25    xoffset=0     yoffset=7     xadvance=8     page=0  chnl=15
char id=356  x=188   y=55    width=19    height=26    xoffset=0     yoffset=0     xadvance=19    page=0  chnl=15
char id=357  x=361   y=255   width=12    height=21    xoffset=0     yoffset=5     xadvance=11    page=0  chnl=15
char id=358  x=294   y=340   width=18    height=20    xoffset=0     yoffset=6     xadvance=18    page=0  chnl=15
char id=359  x=89    y=409   width=9     height=19    xoffset=0     yoffset=7     xadvance=8     page=0  chnl=15
char id=360  x=448   y=54    width=19    height=26    xoffset=1     yoffset=0     xadvance=21    page=0  chnl=15
char id=361  x=195   y=234   width=14    height=22    xoffset=1     yoffset=4     xadvance=16    page=0  chnl=15
char id=362  x=40    y=141   width=19    height=25    xoffset=1     yoffset=1     xadvance=21    page=0  chnl=15
char id=363  x=264   y=384   width=14    height=20    xoffset=1     yoffset=6     xadvance=16    page=0  chnl=15
char id=364  x=208   y=55    width=19    height=26    xoffset=1     yoffset=0     xadvance=21    page=0  chnl=15
char id=365  x=135   y=235   width=14    height=22    xoffset=1     yoffset=4     xadvance=16    page=0  chnl=15
char id=366  x=268   y=55    width=19    height=26    xoffset=1     yoffset=0     xadvance=21    page=0  chnl=15
char id=367  x=389   y=135   width=14    height=25    xoffset=1     yoffset=1     xadvance=16    page=0  chnl=15
char id=368  x=328   y=55    width=19    height=26    xoffset=1     yoffset=0     xadvance=21    page=0  chnl=15
char id=369  x=90    y=238   width=14    height=22    xoffset=1     yoffset=4     xadvance=16    page=0  chnl=15
char id=370  x=408   y=55    width=19    height=26    xoffset=1     yoffset=6     xadvance=21    page=0  chnl=15
char id=371  x=75    y=238   width=14    height=22    xoffset=1     yoffset=10    xadvance=16    page=0  chnl=15
char id=372  x=439   y=0     width=30    height=26    xoffset=0     yoffset=0     xadvance=30    page=0  chnl=15
char id=373  x=25    y=192   width=23    height=22    xoffset=-1    yoffset=4     xadvance=21    page=0  chnl=15
char id=374  x=348   y=55    width=19    height=26    xoffset=0     yoffset=0     xadvance=19    page=0  chnl=15
char id=375  x=86    y=0     width=15    height=28    xoffset=-1    yoffset=4     xadvance=13    page=0  chnl=15
char id=376  x=220   y=161   width=19    height=24    xoffset=0     yoffset=2     xadvance=19    page=0  chnl=15
char id=377  x=140   y=137   width=18    height=25    xoffset=0     yoffset=1     xadvance=18    page=0  chnl=15
char id=378  x=239   y=233   width=13    height=22    xoffset=0     yoffset=4     xadvance=14    page=0  chnl=15
char id=379  x=178   y=137   width=18    height=25    xoffset=0     yoffset=1     xadvance=18    page=0  chnl=15
char id=380  x=347   y=255   width=13    height=21    xoffset=0     yoffset=5     xadvance=14    page=0  chnl=15
char id=381  x=76    y=84    width=18    height=26    xoffset=0     yoffset=0     xadvance=18    page=0  chnl=15
char id=382  x=253   y=232   width=13    height=22    xoffset=0     yoffset=4     xadvance=14    page=0  chnl=15
char id=383  x=447   y=253   width=7     height=21    xoffset=1     yoffset=5     xadvance=7     page=0  chnl=15
char id=1024 x=197   y=136   width=17    height=25    xoffset=2     yoffset=1     xadvance=19    page=0  chnl=15
char id=1025 x=296   y=161   width=17    height=24    xoffset=2     yoffset=2     xadvance=19    page=0  chnl=15
char id=1026 x=75    y=304   width=24    height=20    xoffset=0     yoffset=6     xadvance=25    page=0  chnl=15
char id=1027 x=374   y=135   width=14    height=25    xoffset=2     yoffset=1     xadvance=16    page=0  chnl=15
char id=1028 x=346   y=319   width=20    height=20    xoffset=1     yoffset=6     xadvance=21    page=0  chnl=15
char id=1029 x=90    y=367   width=17    height=20    xoffset=1     yoffset=6     xadvance=19    page=0  chnl=15
char id=1030 x=79    y=409   width=4     height=20    xoffset=2     yoffset=6     xadvance=7     page=0  chnl=15
char id=1031 x=375   y=161   width=9     height=24    xoffset=-1    yoffset=2     xadvance=7     page=0  chnl=15
char id=1032 x=497   y=338   width=14    height=20    xoffset=0     yoffset=6     xadvance=15    page=0  chnl=15
char id=1033 x=0     y=283   width=31    height=20    xoffset=-1    yoffset=6     xadvance=31    page=0  chnl=15
char id=1034 x=377   y=277   width=26    height=20    xoffset=2     yoffset=6     xadvance=29    page=0  chnl=15
char id=1035 x=221   y=300   width=23    height=20    xoffset=0     yoffset=6     xadvance=25    page=0  chnl=15
char id=1036 x=495   y=108   width=15    height=25    xoffset=2     yoffset=1     xadvance=17    page=0  chnl=15
char id=1037 x=287   y=135   width=17    height=25    xoffset=2     yoffset=1     xadvance=21    page=0  chnl=15
char id=1038 x=108   y=56    width=19    height=26    xoffset=0     yoffset=0     xadvance=18    page=0  chnl=15
char id=1039 x=386   y=82    width=17    height=26    xoffset=2     yoffset=6     xadvance=21    page=0  chnl=15
char id=1040 x=198   y=321   width=21    height=20    xoffset=-1    yoffset=6     xadvance=19    page=0  chnl=15
char id=1041 x=85    y=388   width=16    height=20    xoffset=2     yoffset=6     xadvance=19    page=0  chnl=15
char id=1042 x=136   y=388   width=16    height=20    xoffset=2     yoffset=6     xadvance=19    page=0  chnl=15
char id=1043 x=474   y=381   width=14    height=20    xoffset=2     yoffset=6     xadvance=16    page=0  chnl=15
char id=1044 x=469   y=27    width=21    height=26    xoffset=-1    yoffset=6     xadvance=20    page=0  chnl=15
char id=1045 x=72    y=367   width=17    height=20    xoffset=2     yoffset=6     xadvance=19    page=0  chnl=15
char id=1046 x=240   y=278   width=27    height=20    xoffset=0     yoffset=6     xadvance=27    page=0  chnl=15
char id=1047 x=54    y=367   width=17    height=20    xoffset=0     yoffset=6     xadvance=18    page=0  chnl=15
char id=1048 x=36    y=367   width=17    height=20    xoffset=2     yoffset=6     xadvance=21    page=0  chnl=15
char id=1049 x=314   y=82    width=17    height=26    xoffset=2     yoffset=0     xadvance=21    page=0  chnl=15
char id=1050 x=153   y=387   width=15    height=20    xoffset=2     yoffset=6     xadvance=17    page=0  chnl=15
char id=1051 x=218   y=342   width=18    height=20    xoffset=-1    yoffset=6     xadvance=19    page=0  chnl=15
char id=1052 x=283   y=319   width=20    height=20    xoffset=2     yoffset=6     xadvance=23    page=0  chnl=15
char id=1053 x=0     y=367   width=17    height=20    xoffset=2     yoffset=6     xadvance=21    page=0  chnl=15
char id=1054 x=405   y=298   width=21    height=20    xoffset=1     yoffset=6     xadvance=23    page=0  chnl=15
char id=1055 x=126   y=367   width=17    height=20    xoffset=2     yoffset=6     xadvance=21    page=0  chnl=15
char id=1056 x=488   y=360   width=16    height=20    xoffset=2     yoffset=6     xadvance=19    page=0  chnl=15
char id=1057 x=0     y=346   width=19    height=20    xoffset=1     yoffset=6     xadvance=21    page=0  chnl=15
char id=1058 x=490   y=317   width=19    height=20    xoffset=0     yoffset=6     xadvance=19    page=0  chnl=15
char id=1059 x=140   y=345   width=19    height=20    xoffset=0     yoffset=6     xadvance=18    page=0  chnl=15
char id=1060 x=409   y=319   width=20    height=20    xoffset=1     yoffset=6     xadvance=22    page=0  chnl=15
char id=1061 x=120   y=346   width=19    height=20    xoffset=0     yoffset=6     xadvance=19    page=0  chnl=15
char id=1062 x=388   y=55    width=19    height=26    xoffset=2     yoffset=6     xadvance=21    page=0  chnl=15
char id=1063 x=454   y=361   width=16    height=20    xoffset=1     yoffset=6     xadvance=19    page=0  chnl=15
char id=1064 x=149   y=303   width=23    height=20    xoffset=2     yoffset=6     xadvance=27    page=0  chnl=15
char id=1065 x=175   y=28    width=25    height=26    xoffset=2     yoffset=6     xadvance=27    page=0  chnl=15
char id=1066 x=268   y=298   width=22    height=20    xoffset=0     yoffset=6     xadvance=23    page=0  chnl=15
char id=1067 x=245   y=299   width=22    height=20    xoffset=2     yoffset=6     xadvance=26    page=0  chnl=15
char id=1068 x=0     y=388   width=16    height=20    xoffset=2     yoffset=6     xadvance=19    page=0  chnl=15
char id=1069 x=241   y=321   width=20    height=20    xoffset=1     yoffset=6     xadvance=21    page=0  chnl=15
char id=1070 x=431   y=276   width=26    height=20    xoffset=2     yoffset=6     xadvance=29    page=0  chnl=15
char id=1071 x=256   y=342   width=18    height=20    xoffset=1     yoffset=6     xadvance=21    page=0  chnl=15
char id=1072 x=0     y=447   width=17    height=16    xoffset=0     yoffset=10    xadvance=16    page=0  chnl=15
char id=1073 x=142   y=258   width=16    height=21    xoffset=1     yoffset=5     xadvance=17    page=0  chnl=15
char id=1074 x=355   y=437   width=14    height=16    xoffset=1     yoffset=10    xadvance=15    page=0  chnl=15
char id=1075 x=501   y=436   width=10    height=16    xoffset=1     yoffset=10    xadvance=11    page=0  chnl=15
char id=1076 x=244   y=186   width=17    height=22    xoffset=0     yoffset=10    xadvance=17    page=0  chnl=15
char id=1077 x=232   y=440   width=15    height=16    xoffset=0     yoffset=10    xadvance=16    page=0  chnl=15
char id=1078 x=187   y=426   width=21    height=16    xoffset=0     yoffset=10    xadvance=20    page=0  chnl=15
char id=1079 x=0     y=464   width=13    height=16    xoffset=0     yoffset=10    xadvance=13    page=0  chnl=15
char id=1080 x=280   y=440   width=14    height=16    xoffset=1     yoffset=10    xadvance=16    page=0  chnl=15
char id=1081 x=440   y=160   width=14    height=23    xoffset=1     yoffset=3     xadvance=16    page=0  chnl=15
char id=1082 x=487   y=437   width=13    height=16    xoffset=1     yoffset=10    xadvance=13    page=0  chnl=15
char id=1083 x=480   y=420   width=17    height=16    xoffset=-1    yoffset=10    xadvance=17    page=0  chnl=15
char id=1084 x=425   y=420   width=18    height=16    xoffset=1     yoffset=10    xadvance=20    page=0  chnl=15
char id=1085 x=497   y=402   width=14    height=16    xoffset=1     yoffset=10    xadvance=16    page=0  chnl=15
char id=1086 x=87    y=447   width=16    height=16    xoffset=0     yoffset=10    xadvance=16    page=0  chnl=15
char id=1087 x=415   y=437   width=14    height=16    xoffset=1     yoffset=10    xadvance=16    page=0  chnl=15
char id=1088 x=64    y=215   width=15    height=22    xoffset=1     yoffset=10    xadvance=16    page=0  chnl=15
char id=1089 x=340   y=438   width=14    height=16    xoffset=1     yoffset=10    xadvance=15    page=0  chnl=15
char id=1090 x=14    y=464   width=13    height=16    xoffset=0     yoffset=10    xadvance=13    page=0  chnl=15
char id=1091 x=144   y=212   width=15    height=22    xoffset=-1    yoffset=10    xadvance=13    page=0  chnl=15
char id=1092 x=150   y=0     width=24    height=27    xoffset=0     yoffset=5     xadvance=24    page=0  chnl=15
char id=1093 x=56    y=464   width=13    height=16    xoffset=0     yoffset=10    xadvance=13    page=0  chnl=15
char id=1094 x=333   y=186   width=16    height=22    xoffset=1     yoffset=10    xadvance=17    page=0  chnl=15
char id=1095 x=473   y=437   width=13    height=16    xoffset=1     yoffset=10    xadvance=15    page=0  chnl=15
char id=1096 x=165   y=427   width=21    height=16    xoffset=1     yoffset=10    xadvance=23    page=0  chnl=15
char id=1097 x=49    y=192   width=23    height=22    xoffset=1     yoffset=10    xadvance=24    page=0  chnl=15
char id=1098 x=368   y=420   width=18    height=16    xoffset=0     yoffset=10    xadvance=18    page=0  chnl=15
char id=1099 x=272   y=423   width=19    height=16    xoffset=1     yoffset=10    xadvance=21    page=0  chnl=15
char id=1100 x=310   y=440   width=14    height=16    xoffset=1     yoffset=10    xadvance=15    page=0  chnl=15
char id=1101 x=385   y=437   width=14    height=16    xoffset=0     yoffset=10    xadvance=15    page=0  chnl=15
char id=1102 x=143   y=428   width=21    height=16    xoffset=1     yoffset=10    xadvance=22    page=0  chnl=15
char id=1103 x=120   y=445   width=15    height=16    xoffset=0     yoffset=10    xadvance=16    page=0  chnl=15
char id=1104 x=112   y=214   width=15    height=22    xoffset=0     yoffset=4     xadvance=16    page=0  chnl=15
char id=1105 x=169   y=387   width=15    height=20    xoffset=0     yoffset=6     xadvance=16    page=0  chnl=15
char id=1106 x=175   y=0     width=16    height=27    xoffset=-1    yoffset=5     xadvance=16    page=0  chnl=15
char id=1107 x=398   y=232   width=10    height=22    xoffset=1     yoffset=4     xadvance=11    page=0  chnl=15
char id=1108 x=295   y=440   width=14    height=16    xoffset=1     yoffset=10    xadvance=15    page=0  chnl=15
char id=1109 x=168   y=444   width=15    height=16    xoffset=0     yoffset=10    xadvance=15    page=0  chnl=15
char id=1110 x=455   y=253   width=4     height=21    xoffset=1     yoffset=5     xadvance=7     page=0  chnl=15
char id=1111 x=43    y=409   width=11    height=20    xoffset=-1    yoffset=6     xadvance=9     page=0  chnl=15
char id=1112 x=375   y=0     width=6     height=27    xoffset=-1    yoffset=5     xadvance=7     page=0  chnl=15
char id=1113 x=339   y=403   width=27    height=16    xoffset=-1    yoffset=10    xadvance=26    page=0  chnl=15
char id=1114 x=72    y=430   width=23    height=16    xoffset=1     yoffset=10    xadvance=24    page=0  chnl=15
char id=1115 x=125   y=260   width=16    height=21    xoffset=-1    yoffset=5     xadvance=16    page=0  chnl=15
char id=1116 x=225   y=233   width=13    height=22    xoffset=1     yoffset=4     xadvance=13    page=0  chnl=15
char id=1117 x=120   y=237   width=14    height=22    xoffset=1     yoffset=4     xadvance=16    page=0  chnl=15
char id=1118 x=54    y=0     width=15    height=29    xoffset=-1    yoffset=3     xadvance=13    page=0  chnl=15
char id=1119 x=165   y=234   width=14    height=22    xoffset=1     yoffset=10    xadvance=16    page=0  chnl=15
char id=1120 x=465   y=252   width=37    height=20    xoffset=1     yoffset=6     xadvance=39    page=0  chnl=15
char id=1121 x=330   y=421   width=18    height=16    xoffset=0     yoffset=10    xadvance=18    page=0  chnl=15
char id=1122 x=173   y=301   width=23    height=20    xoffset=0     yoffset=6     xadvance=23    page=0  chnl=15
char id=1123 x=0     y=261   width=18    height=21    xoffset=0     yoffset=5     xadvance=18    page=0  chnl=15
char id=1124 x=458   y=275   width=25    height=20    xoffset=2     yoffset=6     xadvance=28    page=0  chnl=15
char id=1125 x=230   y=423   width=20    height=16    xoffset=1     yoffset=10    xadvance=21    page=0  chnl=15
char id=1126 x=154   y=324   width=21    height=20    xoffset=-1    yoffset=6     xadvance=19    page=0  chnl=15
char id=1127 x=444   y=420   width=17    height=16    xoffset=-1    yoffset=10    xadvance=15    page=0  chnl=15
char id=1128 x=484   y=273   width=24    height=20    xoffset=2     yoffset=6     xadvance=26    page=0  chnl=15
char id=1129 x=251   y=423   width=20    height=16    xoffset=1     yoffset=10    xadvance=20    page=0  chnl=15
char id=1130 x=291   y=298   width=22    height=20    xoffset=1     yoffset=6     xadvance=24    page=0  chnl=15
char id=1131 x=387   y=420   width=18    height=16    xoffset=1     yoffset=10    xadvance=20    page=0  chnl=15
char id=1132 x=183   y=279   width=28    height=20    xoffset=2     yoffset=6     xadvance=31    page=0  chnl=15
char id=1133 x=473   y=403   width=23    height=16    xoffset=1     yoffset=10    xadvance=25    page=0  chnl=15
char id=1134 x=21    y=0     width=16    height=31    xoffset=1     yoffset=1     xadvance=18    page=0  chnl=15
char id=1135 x=256   y=0     width=13    height=27    xoffset=0     yoffset=5     xadvance=13    page=0  chnl=15
char id=1136 x=314   y=298   width=22    height=20    xoffset=0     yoffset=6     xadvance=23    page=0  chnl=15
char id=1137 x=115   y=189   width=19    height=22    xoffset=0     yoffset=10    xadvance=20    page=0  chnl=15
char id=1138 x=110   y=325   width=21    height=20    xoffset=1     yoffset=6     xadvance=23    page=0  chnl=15
char id=1139 x=53    y=447   width=16    height=16    xoffset=0     yoffset=10    xadvance=16    page=0  chnl=15
char id=1140 x=197   y=300   width=23    height=20    xoffset=0     yoffset=6     xadvance=23    page=0  chnl=15
char id=1141 x=349   y=420   width=18    height=16    xoffset=0     yoffset=10    xadvance=18    page=0  chnl=15
char id=1142 x=201   y=28    width=23    height=26    xoffset=0     yoffset=0     xadvance=23    page=0  chnl=15
char id=1143 x=135   y=189   width=18    height=22    xoffset=0     yoffset=4     xadvance=18    page=0  chnl=15
char id=1144 x=470   y=0     width=30    height=26    xoffset=1     yoffset=6     xadvance=31    page=0  chnl=15
char id=1145 x=455   y=160   width=26    height=22    xoffset=0     yoffset=10    xadvance=26    page=0  chnl=15
char id=1146 x=0     y=192   width=24    height=22    xoffset=0     yoffset=5     xadvance=24    page=0  chnl=15
char id=1147 x=109   y=409   width=18    height=18    xoffset=0     yoffset=9     xadvance=18    page=0  chnl=15
char id=1148 x=405   y=0     width=33    height=26    xoffset=1     yoffset=0     xadvance=35    page=0  chnl=15
char id=1149 x=0     y=167   width=24    height=24    xoffset=0     yoffset=2     xadvance=25    page=0  chnl=15
char id=1150 x=211   y=109   width=37    height=25    xoffset=1     yoffset=1     xadvance=39    page=0  chnl=15
char id=1151 x=19    y=261   width=18    height=21    xoffset=0     yoffset=5     xadvance=18    page=0  chnl=15
char id=1152 x=228   y=55    width=19    height=26    xoffset=1     yoffset=6     xadvance=21    page=0  chnl=15
char id=1153 x=176   y=211   width=15    height=22    xoffset=0     yoffset=10    xadvance=15    page=0  chnl=15
char id=1154 x=108   y=260   width=16    height=21    xoffset=0     yoffset=5     xadvance=15    page=0  chnl=15
char id=1155 x=162   y=478   width=12    height=5     xoffset=-6    yoffset=4     xadvance=0     page=0  chnl=15
char id=1156 x=232   y=472   width=10    height=3     xoffset=-5    yoffset=6     xadvance=0     page=0  chnl=15
char id=1157 x=511   y=0     width=0     height=1     xoffset=0     yoffset=31    xadvance=0     page=0  chnl=15
char id=1158 x=46    y=30    width=0     height=1     xoffset=0     yoffset=31    xadvance=0     page=0  chnl=15
char id=1159 x=143   y=478   width=18    height=5     xoffset=-9    yoffset=2     xadvance=0     page=0  chnl=15
char id=1160 x=31    y=32    width=30    height=26    xoffset=-15   yoffset=5     xadvance=0     page=0  chnl=15
char id=1161 x=62    y=30    width=28    height=26    xoffset=-14   yoffset=5     xadvance=0     page=0  chnl=15
char id=1162 x=0     y=0     width=20    height=32    xoffset=2     yoffset=0     xadvance=21    page=0  chnl=15
char id=1163 x=192   y=0     width=16    height=27    xoffset=1     yoffset=3     xadvance=16    page=0  chnl=15
char id=1164 x=325   y=319   width=20    height=20    xoffset=-1    yoffset=6     xadvance=19    page=0  chnl=15
char id=1165 x=208   y=257   width=15    height=21    xoffset=0     yoffset=5     xadvance=15    page=0  chnl=15
char id=1166 x=108   y=367   width=17    height=20    xoffset=2     yoffset=6     xadvance=19    page=0  chnl=15
char id=1167 x=400   y=209   width=15    height=22    xoffset=1     yoffset=10    xadvance=16    page=0  chnl=15
char id=1168 x=160   y=110   width=12    height=26    xoffset=2     yoffset=0     xadvance=14    page=0  chnl=15
char id=1169 x=374   y=255   width=11    height=21    xoffset=1     yoffset=5     xadvance=12    page=0  chnl=15
char id=1170 x=180   y=364   width=17    height=20    xoffset=-1    yoffset=6     xadvance=16    page=0  chnl=15
char id=1171 x=70    y=464   width=11    height=16    xoffset=0     yoffset=10    xadvance=11    page=0  chnl=15
char id=1172 x=34    y=114   width=16    height=26    xoffset=2     yoffset=6     xadvance=19    page=0  chnl=15
char id=1173 x=160   y=211   width=15    height=22    xoffset=1     yoffset=10    xadvance=16    page=0  chnl=15
char id=1174 x=91    y=29    width=27    height=26    xoffset=0     yoffset=6     xadvance=27    page=0  chnl=15
char id=1175 x=73    y=192   width=20    height=22    xoffset=0     yoffset=10    xadvance=19    page=0  chnl=15
char id=1176 x=350   y=82    width=17    height=26    xoffset=0     yoffset=6     xadvance=18    page=0  chnl=15
char id=1177 x=323   y=232   width=13    height=22    xoffset=0     yoffset=10    xadvance=13    page=0  chnl=15
char id=1178 x=0     y=114   width=16    height=26    xoffset=2     yoffset=6     xadvance=17    page=0  chnl=15
char id=1179 x=295   y=232   width=13    height=22    xoffset=1     yoffset=10    xadvance=13    page=0  chnl=15
char id=1180 x=201   y=385   width=15    height=20    xoffset=2     yoffset=6     xadvance=17    page=0  chnl=15
char id=1181 x=459   y=437   width=13    height=16    xoffset=1     yoffset=10    xadvance=13    page=0  chnl=15
char id=1182 x=351   y=340   width=18    height=20    xoffset=-1    yoffset=6     xadvance=17    page=0  chnl=15
char id=1183 x=240   y=256   width=15    height=21    xoffset=-1    yoffset=5     xadvance=13    page=0  chnl=15
char id=1184 x=360   y=298   width=22    height=20    xoffset=0     yoffset=6     xadvance=22    page=0  chnl=15
char id=1185 x=462   y=420   width=17    height=16    xoffset=0     yoffset=10    xadvance=16    page=0  chnl=15
char id=1186 x=128   y=56    width=19    height=26    xoffset=2     yoffset=6     xadvance=21    page=0  chnl=15
char id=1187 x=320   y=209   width=15    height=22    xoffset=1     yoffset=10    xadvance=16    page=0  chnl=15
char id=1188 x=100   y=304   width=24    height=20    xoffset=2     yoffset=6     xadvance=26    page=0  chnl=15
char id=1189 x=292   y=423   width=18    height=16    xoffset=1     yoffset=10    xadvance=19    page=0  chnl=15
char id=1190 x=0     y=33    width=30    height=26    xoffset=2     yoffset=6     xadvance=33    page=0  chnl=15
char id=1191 x=482   y=159   width=24    height=22    xoffset=1     yoffset=10    xadvance=25    page=0  chnl=15
char id=1192 x=337   y=298   width=22    height=20    xoffset=0     yoffset=6     xadvance=22    page=0  chnl=15
char id=1193 x=184   y=444   width=15    height=16    xoffset=0     yoffset=10    xadvance=15    page=0  chnl=15
char id=1194 x=468   y=54    width=19    height=26    xoffset=1     yoffset=6     xadvance=21    page=0  chnl=15
char id=1195 x=210   y=233   width=14    height=22    xoffset=1     yoffset=10    xadvance=15    page=0  chnl=15
char id=1196 x=57    y=86    width=18    height=26    xoffset=0     yoffset=6     xadvance=18    page=0  chnl=15
char id=1197 x=309   y=232   width=13    height=22    xoffset=0     yoffset=10    xadvance=13    page=0  chnl=15
char id=1198 x=34    y=388   width=16    height=20    xoffset=0     yoffset=6     xadvance=16    page=0  chnl=15
char id=1199 x=384   y=209   width=15    height=22    xoffset=0     yoffset=10    xadvance=15    page=0  chnl=15
char id=1200 x=335   y=361   width=16    height=20    xoffset=0     yoffset=6     xadvance=16    page=0  chnl=15
char id=1201 x=16    y=215   width=15    height=22    xoffset=0     yoffset=10    xadvance=15    page=0  chnl=15
char id=1202 x=66    y=57    width=20    height=26    xoffset=0     yoffset=6     xadvance=19    page=0  chnl=15
char id=1203 x=435   y=185   width=16    height=22    xoffset=0     yoffset=10    xadvance=15    page=0  chnl=15
char id=1204 x=119   y=29    width=27    height=26    xoffset=0     yoffset=6     xadvance=27    page=0  chnl=15
char id=1205 x=94    y=191   width=20    height=22    xoffset=0     yoffset=10    xadvance=20    page=0  chnl=15
char id=1206 x=38    y=87    width=18    height=26    xoffset=1     yoffset=6     xadvance=19    page=0  chnl=15
char id=1207 x=250   y=363   width=16    height=20    xoffset=0     yoffset=10    xadvance=15    page=0  chnl=15
char id=1208 x=267   y=363   width=16    height=20    xoffset=1     yoffset=6     xadvance=19    page=0  chnl=15
char id=1209 x=28    y=464   width=13    height=16    xoffset=1     yoffset=10    xadvance=15    page=0  chnl=15
char id=1210 x=284   y=362   width=16    height=20    xoffset=2     yoffset=6     xadvance=19    page=0  chnl=15
char id=1211 x=302   y=255   width=14    height=21    xoffset=1     yoffset=5     xadvance=16    page=0  chnl=15
char id=1212 x=404   y=277   width=26    height=20    xoffset=-1    yoffset=6     xadvance=25    page=0  chnl=15
char id=1213 x=209   y=424   width=20    height=16    xoffset=-1    yoffset=10    xadvance=19    page=0  chnl=15
char id=1214 x=468   y=134   width=26    height=24    xoffset=-1    yoffset=6     xadvance=25    page=0  chnl=15
char id=1215 x=367   y=319   width=20    height=20    xoffset=-1    yoffset=10    xadvance=19    page=0  chnl=15
char id=1216 x=84    y=409   width=4     height=20    xoffset=2     yoffset=6     xadvance=7     page=0  chnl=15
char id=1217 x=147   y=29    width=27    height=26    xoffset=0     yoffset=0     xadvance=27    page=0  chnl=15
char id=1218 x=385   y=161   width=21    height=23    xoffset=0     yoffset=3     xadvance=20    page=0  chnl=15
char id=1219 x=332   y=82    width=17    height=26    xoffset=2     yoffset=6     xadvance=19    page=0  chnl=15
char id=1220 x=48    y=215   width=15    height=22    xoffset=1     yoffset=10    xadvance=16    page=0  chnl=15
char id=1221 x=22    y=60    width=21    height=26    xoffset=-1    yoffset=6     xadvance=19    page=0  chnl=15
char id=1222 x=430   y=319   width=19    height=20    xoffset=-1    yoffset=10    xadvance=17    page=0  chnl=15
char id=1223 x=440   y=81    width=17    height=26    xoffset=2     yoffset=6     xadvance=21    page=0  chnl=15
char id=1224 x=180   y=234   width=14    height=22    xoffset=1     yoffset=10    xadvance=16    page=0  chnl=15
char id=1225 x=87    y=57    width=20    height=26    xoffset=2     yoffset=6     xadvance=21    page=0  chnl=15
char id=1226 x=51    y=388   width=16    height=20    xoffset=1     yoffset=10    xadvance=16    page=0  chnl=15
char id=1227 x=17    y=114   width=16    height=26    xoffset=1     yoffset=6     xadvance=19    page=0  chnl=15
char id=1228 x=267   y=232   width=13    height=22    xoffset=1     yoffset=10    xadvance=15    page=0  chnl=15
char id=1229 x=225   y=28    width=23    height=26    xoffset=2     yoffset=6     xadvance=24    page=0  chnl=15
char id=1230 x=220   y=321   width=20    height=20    xoffset=1     yoffset=10    xadvance=20    page=0  chnl=15
char id=1231 x=460   y=253   width=4     height=21    xoffset=1     yoffset=5     xadvance=7     page=0  chnl=15
char id=1232 x=425   y=27    width=21    height=26    xoffset=-1    yoffset=0     xadvance=19    page=0  chnl=15
char id=1233 x=226   y=186   width=17    height=22    xoffset=0     yoffset=4     xadvance=16    page=0  chnl=15
char id=1234 x=114   y=164   width=21    height=24    xoffset=-1    yoffset=2     xadvance=19    page=0  chnl=15
char id=1235 x=389   y=340   width=17    height=20    xoffset=0     yoffset=6     xadvance=16    page=0  chnl=15
char id=1236 x=124   y=282   width=29    height=20    xoffset=0     yoffset=6     xadvance=29    page=0  chnl=15
char id=1237 x=447   y=403   width=25    height=16    xoffset=0     yoffset=10    xadvance=26    page=0  chnl=15
char id=1238 x=368   y=82    width=17    height=26    xoffset=2     yoffset=0     xadvance=19    page=0  chnl=15
char id=1239 x=352   y=209   width=15    height=22    xoffset=0     yoffset=4     xadvance=16    page=0  chnl=15
char id=1240 x=262   y=320   width=20    height=20    xoffset=1     yoffset=6     xadvance=22    page=0  chnl=15
char id=1241 x=216   y=441   width=15    height=16    xoffset=0     yoffset=10    xadvance=16    page=0  chnl=15
char id=1242 x=158   y=163   width=20    height=24    xoffset=1     yoffset=2     xadvance=22    page=0  chnl=15
char id=1243 x=233   y=384   width=15    height=20    xoffset=0     yoffset=6     xadvance=16    page=0  chnl=15
char id=1244 x=440   y=135   width=27    height=24    xoffset=0     yoffset=2     xadvance=27    page=0  chnl=15
char id=1245 x=449   y=297   width=21    height=20    xoffset=0     yoffset=6     xadvance=20    page=0  chnl=15
char id=1246 x=278   y=161   width=17    height=24    xoffset=0     yoffset=2     xadvance=18    page=0  chnl=15
char id=1247 x=29    y=409   width=13    height=20    xoffset=0     yoffset=6     xadvance=13    page=0  chnl=15
char id=1248 x=198   y=364   width=17    height=20    xoffset=1     yoffset=6     xadvance=18    page=0  chnl=15
char id=1249 x=418   y=185   width=16    height=22    xoffset=0     yoffset=10    xadvance=16    page=0  chnl=15
char id=1250 x=215   y=135   width=17    height=25    xoffset=2     yoffset=1     xadvance=21    page=0  chnl=15
char id=1251 x=354   y=382   width=14    height=20    xoffset=1     yoffset=6     xadvance=16    page=0  chnl=15
char id=1252 x=314   y=161   width=17    height=24    xoffset=2     yoffset=2     xadvance=21    page=0  chnl=15
char id=1253 x=384   y=382   width=14    height=20    xoffset=1     yoffset=6     xadvance=16    page=0  chnl=15
char id=1254 x=70    y=167   width=21    height=24    xoffset=1     yoffset=2     xadvance=23    page=0  chnl=15
char id=1255 x=318   y=361   width=16    height=20    xoffset=0     yoffset=6     xadvance=16    page=0  chnl=15
char id=1256 x=0     y=325   width=21    height=20    xoffset=1     yoffset=6     xadvance=23    page=0  chnl=15
char id=1257 x=36    y=447   width=16    height=16    xoffset=0     yoffset=10    xadvance=16    page=0  chnl=15
char id=1258 x=92    y=166   width=21    height=24    xoffset=1     yoffset=2     xadvance=23    page=0  chnl=15
char id=1259 x=102   y=388   width=16    height=20    xoffset=0     yoffset=6     xadvance=16    page=0  chnl=15
char id=1260 x=179   y=163   width=20    height=24    xoffset=1     yoffset=2     xadvance=21    page=0  chnl=15
char id=1261 x=429   y=382   width=14    height=20    xoffset=0     yoffset=6     xadvance=15    page=0  chnl=15
char id=1262 x=120   y=137   width=19    height=25    xoffset=0     yoffset=1     xadvance=18    page=0  chnl=15
char id=1263 x=51    y=114   width=15    height=26    xoffset=-1    yoffset=6     xadvance=13    page=0  chnl=15
char id=1264 x=240   y=161   width=19    height=24    xoffset=0     yoffset=2     xadvance=18    page=0  chnl=15
char id=1265 x=83    y=111   width=15    height=26    xoffset=-1    yoffset=6     xadvance=13    page=0  chnl=15
char id=1266 x=248   y=55    width=19    height=26    xoffset=0     yoffset=0     xadvance=18    page=0  chnl=15
char id=1267 x=70    y=0     width=15    height=28    xoffset=-1    yoffset=4     xadvance=13    page=0  chnl=15
char id=1268 x=495   y=134   width=16    height=24    xoffset=1     yoffset=2     xadvance=19    page=0  chnl=15
char id=1269 x=15    y=409   width=13    height=20    xoffset=1     yoffset=6     xadvance=15    page=0  chnl=15
char id=1270 x=115   y=110   width=14    height=26    xoffset=2     yoffset=6     xadvance=16    page=0  chnl=15
char id=1271 x=387   y=232   width=10    height=22    xoffset=1     yoffset=10    xadvance=11    page=0  chnl=15
char id=1272 x=25    y=167   width=22    height=24    xoffset=2     yoffset=2     xadvance=26    page=0  chnl=15
char id=1273 x=60    y=346   width=19    height=20    xoffset=1     yoffset=6     xadvance=21    page=0  chnl=15
char id=1274 x=152   y=83    width=17    height=26    xoffset=-1    yoffset=6     xadvance=16    page=0  chnl=15
char id=1275 x=337   y=232   width=12    height=22    xoffset=-1    yoffset=10    xadvance=11    page=0  chnl=15
char id=1276 x=491   y=27    width=20    height=26    xoffset=0     yoffset=6     xadvance=19    page=0  chnl=15
char id=1277 x=452   y=184   width=16    height=22    xoffset=0     yoffset=10    xadvance=15    page=0  chnl=15
char id=1278 x=40    y=346   width=19    height=20    xoffset=0     yoffset=6     xadvance=19    page=0  chnl=15
char id=1279 x=136   y=445   width=15    height=16    xoffset=0     yoffset=10    xadvance=15    page=0  chnl=15
char id=1280 x=420   y=361   width=16    height=20    xoffset=1     yoffset=6     xadvance=19    page=0  chnl=15
char id=1281 x=256   y=255   width=15    height=21    xoffset=0     yoffset=5     xadvance=16    page=0  chnl=15
char id=1282 x=350   y=277   width=26    height=20    xoffset=1     yoffset=6     xadvance=28    page=0  chnl=15
char id=1283 x=438   y=231   width=24    height=21    xoffset=0     yoffset=5     xadvance=25    page=0  chnl=15
char id=1284 x=323   y=277   width=26    height=20    xoffset=1     yoffset=6     xadvance=28    page=0  chnl=15
char id=1285 x=120   y=428   width=22    height=16    xoffset=1     yoffset=10    xadvance=24    page=0  chnl=15
char id=1286 x=0     y=87    width=18    height=26    xoffset=1     yoffset=6     xadvance=19    page=0  chnl=15
char id=1287 x=30    y=238   width=14    height=22    xoffset=1     yoffset=10    xadvance=15    page=0  chnl=15
char id=1288 x=154   y=280   width=28    height=20    xoffset=-1    yoffset=6     xadvance=28    page=0  chnl=15
char id=1289 x=394   y=403   width=26    height=16    xoffset=-1    yoffset=10    xadvance=26    page=0  chnl=15
char id=1290 x=212   y=279   width=27    height=20    xoffset=2     yoffset=6     xadvance=30    page=0  chnl=15
char id=1291 x=24    y=430   width=23    height=16    xoffset=1     yoffset=10    xadvance=25    page=0  chnl=15
char id=1292 x=44    y=325   width=21    height=20    xoffset=1     yoffset=6     xadvance=23    page=0  chnl=15
char id=1293 x=430   y=437   width=14    height=16    xoffset=1     yoffset=10    xadvance=16    page=0  chnl=15
char id=1294 x=66    y=325   width=21    height=20    xoffset=0     yoffset=6     xadvance=22    page=0  chnl=15
char id=1295 x=311   y=421   width=18    height=16    xoffset=0     yoffset=10    xadvance=19    page=0  chnl=15
char id=1296 x=18    y=367   width=17    height=20    xoffset=0     yoffset=6     xadvance=18    page=0  chnl=15
char id=1297 x=42    y=464   width=13    height=16    xoffset=0     yoffset=10    xadvance=13    page=0  chnl=15
char id=1298 x=488   y=54    width=18    height=26    xoffset=-1    yoffset=6     xadvance=19    page=0  chnl=15
char id=1299 x=262   y=186   width=17    height=22    xoffset=-1    yoffset=10    xadvance=17    page=0  chnl=15
char id=1306 x=429   y=109   width=21    height=25    xoffset=1     yoffset=6     xadvance=23    page=0  chnl=15
char id=1307 x=0     y=215   width=15    height=22    xoffset=0     yoffset=10    xadvance=16    page=0  chnl=15
char id=1308 x=63    y=283   width=30    height=20    xoffset=0     yoffset=6     xadvance=30    page=0  chnl=15
char id=1309 x=96    y=429   width=23    height=16    xoffset=-1    yoffset=10    xadvance=21    page=0  chnl=15
char id=8216 x=109   y=480   width=4     height=7     xoffset=1     yoffset=6     xadvance=6     page=0  chnl=15
char id=8217 x=114   y=479   width=4     height=7     xoffset=1     yoffset=6     xadvance=6     page=0  chnl=15
char id=8220 x=71    y=481   width=10    height=7     xoffset=0     yoffset=6     xadvance=10    page=0  chnl=15
char id=8221 x=82    y=481   width=10    height=7     xoffset=0     yoffset=6     xadvance=10    page=0  chnl=15
char id=8230 x=208   y=474   width=23    height=3     xoffset=3     yoffset=23    xadvance=29    page=0  chnl=15
char id=8242 x=503   y=453   width=5     height=7     xoffset=0     yoffset=6     xadvance=5     page=0  chnl=15
char id=8243 x=93    y=481   width=10    height=7     xoffset=0     yoffset=6     xadvance=10    page=0  chnl=15
char id=8249 x=426   y=454   width=8     height=11    xoffset=1     yoffset=13    xadvance=10    page=0  chnl=15
char id=8250 x=435   y=454   width=8     height=11    xoffset=1     yoffset=13    xadvance=10    page=0  chnl=15
char id=8592 x=11    y=481   width=19    height=7     xoffset=5     yoffset=18    xadvance=29    page=0  chnl=15
char id=8593 x=329   y=403   width=9     height=17    xoffset=3     yoffset=10    xadvance=15    page=0  chnl=15
char id=8594 x=31    y=481   width=19    height=7     xoffset=5     yoffset=18    xadvance=29    page=0  chnl=15
char id=8595 x=319   y=403   width=9     height=17    xoffset=3     yoffset=10    xadvance=15    page=0  chnl=15
char id=8596 x=51    y=481   width=19    height=7     xoffset=5     yoffset=18    xadvance=29    page=0  chnl=15
char id=8597 x=309   y=403   width=9     height=17    xoffset=3     yoffset=10    xadvance=15    page=0  chnl=15
char id=8706 x=317   y=255   width=14    height=21    xoffset=0     yoffset=5     xadvance=14    page=0  chnl=15
char id=8719 x=133   y=83    width=18    height=26    xoffset=3     yoffset=6     xadvance=24    page=0  chnl=15
char id=8721 x=148   y=56    width=19    height=26    xoffset=1     yoffset=6     xadvance=21    page=0  chnl=15
char id=8730 x=407   y=161   width=17    height=23    xoffset=0     yoffset=3     xadvance=16    page=0  chnl=15
char id=8734 x=347   y=455   width=20    height=11    xoffset=0     yoffset=12    xadvance=21    page=0  chnl=15
char id=8745 x=130   y=462   width=15    height=15    xoffset=3     yoffset=11    xadvance=21    page=0  chnl=15
char id=8747 x=270   y=0     width=12    height=27    xoffset=-2    yoffset=5     xadvance=7     page=0  chnl=15
char id=8800 x=260   y=405   width=16    height=17    xoffset=0     yoffset=8     xadvance=16    page=0  chnl=15
char id=8801 x=222   y=458   width=15    height=13    xoffset=1     yoffset=10    xadvance=17    page=0  chnl=15
char id=8804 x=145   y=409   width=16    height=18    xoffset=0     yoffset=8     xadvance=16    page=0  chnl=15
char id=8805 x=162   y=408   width=16    height=18    xoffset=0     yoffset=8     xadvance=16    page=0  chnl=15
char id=9632 x=173   y=461   width=16    height=14    xoffset=1     yoffset=10    xadvance=18    page=0  chnl=15
char id=9633 x=179   y=408   width=20    height=17    xoffset=-1    yoffset=9     xadvance=18    page=0  chnl=15
char id=9650 x=240   y=405   width=19    height=17    xoffset=5     yoffset=9     xadvance=29    page=0  chnl=15
char id=9660 x=220   y=405   width=19    height=17    xoffset=5     yoffset=9     xadvance=29    page=0  chnl=15
char id=9675 x=238   y=457   width=14    height=13    xoffset=2     yoffset=11    xadvance=18    page=0  chnl=15
char id=9679 x=270   y=457   width=14    height=12    xoffset=2     yoffset=12    xadvance=18    page=0  chnl=15
char id=9792 x=162   y=462   width=10    height=15    xoffset=6     yoffset=10    xadvance=22    page=0  chnl=15
char id=9794 x=300   y=457   width=14    height=12    xoffset=4     yoffset=10    xadvance=22    page=0  chnl=15
char id=9824 x=277   y=405   width=15    height=17    xoffset=0     yoffset=9     xadvance=15    page=0  chnl=15
char id=9827 x=200   y=406   width=19    height=17    xoffset=0     yoffset=9     xadvance=19    page=0  chnl=15
char id=9829 x=152   y=445   width=15    height=16    xoffset=1     yoffset=10    xadvance=17    page=0  chnl=15
char id=9830 x=293   y=405   width=15    height=17    xoffset=0     yoffset=9     xadvance=15    page=0  chnl=15
char id=9834 x=82    y=464   width=11    height=16    xoffset=2     yoffset=10    xadvance=15    page=0  chnl=15
kernings count=408
kerning first=32  second=65  amount=-2  
kerning first=32  second=84  amount=-1  
kerning first=32  second=89  amount=-1  
kerning first=8217 second=8217 amount=-1  
kerning first=8217 second=115 amount=-1  
kerning first=8217 second=32  amount=-1  
kerning first=8216 second=8216 amount=-1  
kerning first=1168 second=187 amount=-2  
kerning first=1168 second=171 amount=-2  
kerning first=1168 second=59  amount=-1  
kerning first=49  second=49  amount=-2  
kerning first=65  second=32  amount=-2  
kerning first=65  second=84  amount=-2  
kerning first=65  second=86  amount=-2  
kerning first=65  second=87  amount=-1  
kerning first=65  second=89  amount=-2  
kerning first=65  second=118 amount=-1  
kerning first=65  second=119 amount=-1  
kerning first=65  second=121 amount=-1  
kerning first=65  second=8217 amount=-2  
kerning first=70  second=44  amount=-3  
kerning first=70  second=46  amount=-3  
kerning first=70  second=65  amount=-2  
kerning first=76  second=32  amount=-1  
kerning first=76  second=84  amount=-2  
kerning first=76  second=86  amount=-2  
kerning first=76  second=87  amount=-2  
kerning first=76  second=89  amount=-2  
kerning first=76  second=121 amount=-1  
kerning first=76  second=8217 amount=-2  
kerning first=80  second=32  amount=-1  
kerning first=80  second=44  amount=-4  
kerning first=80  second=46  amount=-4  
kerning first=80  second=65  amount=-2  
kerning first=82  second=84  amount=-1  
kerning first=82  second=86  amount=-1  
kerning first=82  second=87  amount=-1  
kerning first=82  second=89  amount=-1  
kerning first=84  second=32  amount=-1  
kerning first=84  second=44  amount=-3  
kerning first=84  second=45  amount=-2  
kerning first=84  second=46  amount=-3  
kerning first=84  second=58  amount=-3  
kerning first=84  second=59  amount=-3  
kerning first=84  second=65  amount=-2  
kerning first=84  second=79  amount=-1  
kerning first=84  second=97  amount=-3  
kerning first=84  second=99  amount=-3  
kerning first=84  second=101 amount=-3  
kerning first=84  second=105 amount=-1  
kerning first=84  second=111 amount=-3  
kerning first=84  second=114 amount=-1  
kerning first=84  second=115 amount=-3  
kerning first=84  second=117 amount=-1  
kerning first=84  second=119 amount=-2  
kerning first=84  second=121 amount=-2  
kerning first=86  second=44  amount=-3  
kerning first=86  second=45  amount=-2  
kerning first=86  second=46  amount=-3  
kerning first=86  second=58  amount=-1  
kerning first=86  second=59  amount=-1  
kerning first=86  second=65  amount=-2  
kerning first=86  second=97  amount=-2  
kerning first=86  second=101 amount=-2  
kerning first=86  second=105 amount=-1  
kerning first=86  second=111 amount=-2  
kerning first=86  second=114 amount=-1  
kerning first=86  second=117 amount=-1  
kerning first=86  second=121 amount=-1  
kerning first=87  second=44  amount=-2  
kerning first=87  second=45  amount=-1  
kerning first=87  second=46  amount=-2  
kerning first=87  second=58  amount=-1  
kerning first=87  second=59  amount=-1  
kerning first=87  second=65  amount=-1  
kerning first=87  second=97  amount=-1  
kerning first=87  second=101 amount=-1  
kerning first=87  second=111 amount=-1  
kerning first=87  second=114 amount=-1  
kerning first=87  second=117 amount=-1  
kerning first=1168 second=58  amount=-1  
kerning first=89  second=32  amount=-1  
kerning first=89  second=44  amount=-4  
kerning first=89  second=45  amount=-3  
kerning first=89  second=46  amount=-4  
kerning first=89  second=58  amount=-2  
kerning first=89  second=59  amount=-2  
kerning first=89  second=65  amount=-2  
kerning first=89  second=97  amount=-2  
kerning first=89  second=101 amount=-3  
kerning first=89  second=105 amount=-1  
kerning first=89  second=111 amount=-3  
kerning first=89  second=112 amount=-2  
kerning first=89  second=113 amount=-3  
kerning first=89  second=117 amount=-2  
kerning first=89  second=118 amount=-2  
kerning first=102 second=102 amount=-1  
kerning first=102 second=8217 amount=1   
kerning first=114 second=44  amount=-2  
kerning first=114 second=46  amount=-2  
kerning first=114 second=8217 amount=1   
kerning first=118 second=44  amount=-2  
kerning first=118 second=46  amount=-2  
kerning first=119 second=44  amount=-2  
kerning first=119 second=46  amount=-2  
kerning first=121 second=44  amount=-2  
kerning first=121 second=46  amount=-2  
kerning first=1168 second=46  amount=-3  
kerning first=1168 second=44  amount=-3  
kerning first=1118 second=46  amount=-3  
kerning first=1118 second=44  amount=-3  
kerning first=1102 second=1095 amount=-1  
kerning first=1102 second=1090 amount=-1  
kerning first=1102 second=1083 amount=-1  
kerning first=1102 second=1076 amount=-1  
kerning first=1101 second=1090 amount=-1  
kerning first=1101 second=1083 amount=-1  
kerning first=1101 second=1076 amount=-1  
kerning first=1100 second=1095 amount=-2  
kerning first=1100 second=1090 amount=-2  
kerning first=1093 second=1095 amount=-1  
kerning first=1092 second=1095 amount=-1  
kerning first=1092 second=1090 amount=-1  
kerning first=1092 second=1083 amount=-1  
kerning first=1092 second=1076 amount=-1  
kerning first=1091 second=1083 amount=-1  
kerning first=1091 second=1076 amount=-1  
kerning first=1091 second=46  amount=-3  
kerning first=1091 second=44  amount=-3  
kerning first=1090 second=1083 amount=-1  
kerning first=1090 second=1078 amount=1   
kerning first=1090 second=1076 amount=-1  
kerning first=1090 second=46  amount=-3  
kerning first=1090 second=44  amount=-3  
kerning first=1088 second=1095 amount=-1  
kerning first=1088 second=1090 amount=-1  
kerning first=1088 second=1083 amount=-1  
kerning first=1088 second=1076 amount=-1  
kerning first=1086 second=1095 amount=-1  
kerning first=1086 second=1090 amount=-1  
kerning first=1086 second=1083 amount=-1  
kerning first=1086 second=1076 amount=-1  
kerning first=1083 second=1095 amount=-1  
kerning first=1082 second=1073 amount=1   
kerning first=1082 second=1072 amount=1   
kerning first=1079 second=1098 amount=-1  
kerning first=1079 second=1095 amount=-1  
kerning first=1079 second=1076 amount=-1  
kerning first=1078 second=1098 amount=1   
kerning first=1077 second=1095 amount=-1  
kerning first=1077 second=1093 amount=-1  
kerning first=1077 second=1090 amount=-1  
kerning first=1077 second=1083 amount=-1  
kerning first=1077 second=1079 amount=-1  
kerning first=1077 second=1076 amount=-1  
kerning first=1076 second=1098 amount=-1  
kerning first=1075 second=1089 amount=-1  
kerning first=1075 second=1086 amount=-1  
kerning first=1075 second=1083 amount=-1  
kerning first=1075 second=1077 amount=-1  
kerning first=1075 second=1076 amount=-1  
kerning first=1075 second=1072 amount=-1  
kerning first=1075 second=46  amount=-3  
kerning first=1075 second=44  amount=-3  
kerning first=1074 second=1098 amount=-1  
kerning first=1074 second=1095 amount=-1  
kerning first=1074 second=1091 amount=-1  
kerning first=1074 second=1090 amount=-1  
kerning first=1074 second=1083 amount=-1  
kerning first=1073 second=1103 amount=-1  
kerning first=1073 second=1098 amount=-1  
kerning first=1073 second=1095 amount=-1  
kerning first=1073 second=1093 amount=-1  
kerning first=1073 second=1091 amount=-1  
kerning first=1073 second=1084 amount=-1  
kerning first=1073 second=1083 amount=-1  
kerning first=1073 second=1079 amount=-1  
kerning first=1073 second=1076 amount=-1  
kerning first=1073 second=1072 amount=-1  
kerning first=1072 second=1095 amount=-1  
kerning first=1072 second=1090 amount=-1  
kerning first=1070 second=1083 amount=-1  
kerning first=1070 second=1076 amount=-1  
kerning first=1070 second=1063 amount=-1  
kerning first=1070 second=1061 amount=-1  
kerning first=1070 second=1058 amount=-2  
kerning first=1070 second=1051 amount=-1  
kerning first=1070 second=1046 amount=-1  
kerning first=1070 second=1044 amount=-1  
kerning first=1070 second=1040 amount=-1  
kerning first=1069 second=1083 amount=-1  
kerning first=1069 second=1076 amount=-1  
kerning first=1069 second=1071 amount=-1  
kerning first=1069 second=1061 amount=-1  
kerning first=1069 second=1051 amount=-1  
kerning first=1069 second=1044 amount=-1  
kerning first=1068 second=8217 amount=-2  
kerning first=1068 second=1071 amount=-1  
kerning first=1068 second=1063 amount=-2  
kerning first=1068 second=1061 amount=-1  
kerning first=1068 second=1058 amount=-3  
kerning first=1068 second=1057 amount=-1  
kerning first=1068 second=1054 amount=-1  
kerning first=1068 second=1052 amount=-1  
kerning first=1068 second=1051 amount=-1  
kerning first=1068 second=1046 amount=-1  
kerning first=1068 second=1044 amount=-1  
kerning first=1068 second=1040 amount=-1  
kerning first=1066 second=8217 amount=-2  
kerning first=1066 second=1071 amount=-1  
kerning first=1065 second=1091 amount=1   
kerning first=1062 second=1072 amount=1   
kerning first=1062 second=1054 amount=-1  
kerning first=1061 second=1091 amount=-1  
kerning first=1061 second=1069 amount=-1  
kerning first=1061 second=1060 amount=-1  
kerning first=1061 second=1057 amount=-1  
kerning first=1061 second=1054 amount=-1  
kerning first=1061 second=1047 amount=-1  
kerning first=1060 second=1083 amount=-1  
kerning first=1060 second=1071 amount=-1  
kerning first=1060 second=1063 amount=-1  
kerning first=1060 second=1059 amount=-1  
kerning first=1060 second=1058 amount=-2  
kerning first=1060 second=1051 amount=-1  
kerning first=1060 second=1044 amount=-1  
kerning first=1060 second=1040 amount=-1  
kerning first=1059 second=1103 amount=-2  
kerning first=1059 second=1102 amount=-1  
kerning first=1059 second=1097 amount=-1  
kerning first=1059 second=1096 amount=-1  
kerning first=1059 second=1094 amount=-1  
kerning first=1059 second=1093 amount=-1  
kerning first=1059 second=1089 amount=-2  
kerning first=1059 second=1088 amount=-1  
kerning first=1059 second=1087 amount=-1  
kerning first=1059 second=1086 amount=-2  
kerning first=1059 second=1085 amount=-1  
kerning first=1059 second=1084 amount=-1  
kerning first=1059 second=1083 amount=-2  
kerning first=1059 second=1082 amount=-1  
kerning first=1059 second=1081 amount=-1  
kerning first=1059 second=1080 amount=-1  
kerning first=1059 second=1079 amount=-2  
kerning first=1059 second=1078 amount=-1  
kerning first=1059 second=1077 amount=-2  
kerning first=1059 second=1076 amount=-2  
kerning first=1059 second=1075 amount=-1  
kerning first=1059 second=1074 amount=-2  
kerning first=1059 second=1073 amount=-1  
kerning first=1059 second=1071 amount=-1  
kerning first=1059 second=1069 amount=-1  
kerning first=1059 second=1060 amount=-1  
kerning first=1059 second=1054 amount=-1  
kerning first=1059 second=1051 amount=-1  
kerning first=1059 second=1047 amount=-1  
kerning first=1059 second=1044 amount=-1  
kerning first=1059 second=1040 amount=-2  
kerning first=1059 second=187 amount=-1  
kerning first=1059 second=171 amount=-1  
kerning first=1059 second=59  amount=-1  
kerning first=1059 second=58  amount=-1  
kerning first=1059 second=46  amount=-4  
kerning first=1059 second=44  amount=-4  
kerning first=1058 second=1103 amount=-2  
kerning first=1058 second=1102 amount=-1  
kerning first=1058 second=1100 amount=-1  
kerning first=1058 second=1099 amount=-1  
kerning first=1058 second=1097 amount=-1  
kerning first=1058 second=1093 amount=-1  
kerning first=1058 second=1091 amount=-2  
kerning first=1058 second=1089 amount=-2  
kerning first=1058 second=1088 amount=-2  
kerning first=1058 second=1087 amount=-1  
kerning first=1058 second=1086 amount=-2  
kerning first=1058 second=1084 amount=-1  
kerning first=1058 second=1083 amount=-1  
kerning first=1058 second=1082 amount=-1  
kerning first=1058 second=1080 amount=-1  
kerning first=1058 second=1077 amount=-2  
kerning first=1058 second=1074 amount=-1  
kerning first=1058 second=1072 amount=-1  
kerning first=1058 second=1071 amount=-1  
kerning first=1058 second=1060 amount=-1  
kerning first=1058 second=1054 amount=-1  
kerning first=1058 second=1051 amount=-1  
kerning first=1058 second=1044 amount=-1  
kerning first=1058 second=1040 amount=-1  
kerning first=1058 second=187 amount=-1  
kerning first=1058 second=171 amount=-1  
kerning first=1058 second=46  amount=-3  
kerning first=1058 second=44  amount=-3  
kerning first=1057 second=1078 amount=1   
kerning first=1057 second=1066 amount=-1  
kerning first=1057 second=1063 amount=-1  
kerning first=1057 second=1061 amount=-2  
kerning first=1057 second=1059 amount=-1  
kerning first=1057 second=1058 amount=-1  
kerning first=1057 second=1054 amount=-1  
kerning first=1057 second=1051 amount=-1  
kerning first=1057 second=1044 amount=-1  
kerning first=1057 second=1040 amount=-1  
kerning first=1056 second=1103 amount=-1  
kerning first=1056 second=1101 amount=-1  
kerning first=1056 second=1086 amount=-1  
kerning first=1056 second=1077 amount=-1  
kerning first=1056 second=1076 amount=-2  
kerning first=1056 second=1072 amount=-1  
kerning first=1056 second=1071 amount=-1  
kerning first=1056 second=1061 amount=-1  
kerning first=1056 second=1059 amount=-1  
kerning first=1056 second=1058 amount=-1  
kerning first=1056 second=1054 amount=-1  
kerning first=1056 second=1051 amount=-2  
kerning first=1056 second=1047 amount=-1  
kerning first=1056 second=1044 amount=-2  
kerning first=1056 second=1040 amount=-2  
kerning first=1056 second=187 amount=-2  
kerning first=1056 second=59  amount=-1  
kerning first=1056 second=58  amount=-1  
kerning first=1056 second=46  amount=-5  
kerning first=1056 second=44  amount=-5  
kerning first=1054 second=1076 amount=-1  
kerning first=1054 second=1071 amount=-1  
kerning first=1054 second=1063 amount=-1  
kerning first=1054 second=1061 amount=-1  
kerning first=1054 second=1059 amount=-1  
kerning first=1054 second=1046 amount=-1  
kerning first=1054 second=1044 amount=-1  
kerning first=1054 second=1040 amount=-1  
kerning first=1050 second=1060 amount=-1  
kerning first=1047 second=1063 amount=-1  
kerning first=1047 second=1058 amount=-1  
kerning first=1046 second=1066 amount=1   
kerning first=1046 second=1059 amount=1   
kerning first=1046 second=1054 amount=-1  
kerning first=1045 second=1047 amount=-1  
kerning first=1044 second=1091 amount=1   
kerning first=1044 second=1079 amount=1   
kerning first=1044 second=1063 amount=-1  
kerning first=1044 second=1060 amount=-1  
kerning first=1043 second=1103 amount=-2  
kerning first=1043 second=1102 amount=-2  
kerning first=1043 second=1100 amount=-2  
kerning first=1043 second=1099 amount=-2  
kerning first=1043 second=1091 amount=-2  
kerning first=1043 second=1088 amount=-2  
kerning first=1043 second=1086 amount=-2  
kerning first=1043 second=1085 amount=-2  
kerning first=1043 second=1084 amount=-2  
kerning first=1043 second=1083 amount=-2  
kerning first=1043 second=1080 amount=-2  
kerning first=1043 second=1077 amount=-2  
kerning first=1043 second=1076 amount=-2  
kerning first=1043 second=1074 amount=-2  
kerning first=1043 second=1072 amount=-2  
kerning first=1043 second=1071 amount=-1  
kerning first=1043 second=1057 amount=-1  
kerning first=1043 second=1054 amount=-2  
kerning first=1043 second=1052 amount=-1  
kerning first=1043 second=1051 amount=-2  
kerning first=1043 second=1047 amount=-1  
kerning first=1043 second=1044 amount=-2  
kerning first=1043 second=1040 amount=-2  
kerning first=1043 second=187 amount=-2  
kerning first=1043 second=171 amount=-2  
kerning first=1043 second=46  amount=-3  
kerning first=1043 second=44  amount=-3  
kerning first=1042 second=1095 amount=-1  
kerning first=1042 second=1090 amount=-1  
kerning first=1042 second=1071 amount=-1  
kerning first=1042 second=1066 amount=-2  
kerning first=1042 second=1063 amount=-1  
kerning first=1042 second=1061 amount=-1  
kerning first=1042 second=1060 amount=-1  
kerning first=1042 second=1059 amount=-1  
kerning first=1042 second=1058 amount=-2  
kerning first=1042 second=1057 amount=-1  
kerning first=1042 second=1054 amount=-1  
kerning first=1042 second=1047 amount=-1  
kerning first=1042 second=1046 amount=-1  
kerning first=1042 second=1044 amount=-1  
kerning first=1042 second=1040 amount=-1  
kerning first=1041 second=1091 amount=-1  
kerning first=1041 second=1066 amount=-1  
kerning first=1041 second=1063 amount=-1  
kerning first=1041 second=1061 amount=-1  
kerning first=1041 second=1059 amount=-1  
kerning first=1041 second=1058 amount=-1  
kerning first=1041 second=1040 amount=-1  
kerning first=1040 second=8217 amount=-2  
kerning first=1040 second=1101 amount=1   
kerning first=1040 second=1090 amount=-1  
kerning first=1040 second=1069 amount=-1  
kerning first=1040 second=1063 amount=-2  
kerning first=1040 second=1060 amount=-1  
kerning first=1040 second=1059 amount=-1  
kerning first=1040 second=1058 amount=-2  
kerning first=1040 second=1057 amount=-1  
kerning first=1040 second=1054 amount=-1  
kerning first=1040 second=1051 amount=1   
kerning first=1040 second=1044 amount=1   
kerning first=1034 second=8217 amount=-2  
kerning first=1033 second=8217 amount=-2  
kerning first=1027 second=187 amount=-2  
kerning first=1027 second=171 amount=-2  
kerning first=1027 second=46  amount=-3  
kerning first=1027 second=44  amount=-3  
